{
  "input1"  : "LDLコレステロール\n今回\n86\n前回\n95\n前々回\n101",
  "input2"  : "中性脂肪\n今回\n87\n前回\n68\n前々回\n61",
  "input3"  : "受診日_isDate\n今回\n2018.6.25\n前回\n2017.6.1\n前々回\n2016.7.11",
  "input4"  : "受診日\n今回\n2018-06-25\n前回\n2017-06-01\n前々回\n2016-07-11",
  "input5"  : "腹囲\n今回\n67.0\n前回\n66.5\n前々回\n68.0",
  "input6"  : "血色素量\n今回\n14.9\n前回\n15.6\n前々回\n15.2",
  "input7"  : "体重\n今回\n53.9\n前回\n51.9\n前々回\n53.3",
  "input8"  : "尿酸\n今回\n4.5\n前回\n4.8\n前々回\n4.8",
  "input9"  : "血小板数\n今回\n23.2\n前回\n20.0\n前々回\n22.2",
  "input10" : "HDLコレステロール\n今回\n60\n前回\n61\n前々回\n66",
  "input11" : "白血球数\n今回\n47.1\n前回\n47.5\n前々回\n50.0",
  "input12" : "赤血球数\n今回\n515\n前回\n533\n前々回\n532",
  "input13" : "ヘモグロビンA1c\n今回\n5.3\n前回\n5.5\n前々回\n5.4",
  "input14" : "尿糖\n今回\n(-)\n前回\n(-)\n前々回\n(-)",
  "input15" : "空腹時血糖値\n今回\n90\n前回\n83\n前々回\n90",
  "input16" : "身長\n今回\n170.3\n前回\n170.3\n前々回\n170.2",
  "input17" : "BMI\n今回\n18.6\n前回\n17.9\n前々回\n18.4"
}