{
  "input1" :  "LDLコレステロール\n今回\n89\n前回\n86",
  "input2" :  "中性脂肪\n今回\n100\n前回\n37\n前々回\n102",
  "input3" :  "血糖\n今回\n90\n前回\n96",
  "input4" :  "HDLコレステロール\n今回\n82\n前回\n77\n前々回\n46",
  "input5" :  "ヘモグロビンA1c\n今回\n5.2\n前回\n5.0",
  "input6" :  "総コレステロール\n今回\n189\n前回\n188"
}