{
  "input1" : "総コレステロール\n今回\n189\n前回\n188",
  "input2" : "ヘモグロビンA1c\n今回\n5.2\n前回\n5.0",
  "input3" :  "HDLコレステロール\n今回\n100\n前回\n102",
  "input4" : "血糖\n今回\n90\n前回\n96",
  "input5" : "中性脂肪\n今回\n37\n前回\n46",
  "input6" : "LDLコレステロール\n今回\n82\n前回\n77"

}